{
  "todos": [
    {
      "limitDate": "2022-11-29T23:00:00.000Z",
      "status": "WIP",
      "label": "toto",
      "description": "test",
      "id": 1
    },
    {
      "limitDate": "2022-11-29T23:00:00.000Z",
      "status": "DONE",
      "label": "test",
      "description": "test",
      "id": 2
    },
    {
      "limitDate": null,
      "status": "TODO",
      "label": "rezr",
      "description": "rezr",
      "id": 3
    },
    {
      "limitDate": "2022-12-06T23:00:00.000Z",
      "status": "TODO",
      "label": "test",
      "description": "test",
      "id": 4
    }
  ]
}